{
    "name": "flare",
    "children": [
         
        {
            "name": "animate",
            "children": [
                {
                    "name": "Java",
                    "size": 20
                }  
            ]
        } , 
        {
            "name": "an-2",
            "children": [
                {
                    "name": "ROR",
                    "size": 10
                }  
            ]
        } , 
  
        {
            "name": "an-3",
            "children": [
                {
                    "name": "PHP",
                    "size": 30
                }    
            ]
        }  
    ]
}
